---
http_interactions:
- request:
    method: get
    uri: https://api.pexels.com/v1/search?per_page=10&query=guatemala
    body:
      encoding: US-ASCII
      string: ''
    headers:
      Authorization:
      - "<PEXELS_API_KEY>"
      User-Agent:
      - Faraday v2.7.4
      Accept-Encoding:
      - gzip;q=1.0,deflate;q=0.6,identity;q=0.3
      Accept:
      - "*/*"
  response:
    status:
      code: 200
      message: OK
    headers:
      Date:
      - Wed, 08 Mar 2023 05:38:30 GMT
      Content-Type:
      - application/json; charset=utf-8
      Transfer-Encoding:
      - chunked
      Connection:
      - keep-alive
      Cf-Ray:
      - 7a48bb7b5bbc5263-LAX
      Access-Control-Allow-Origin:
      - "*"
      Age:
      - '3021'
      Cache-Control:
      - max-age=86400
      Etag:
      - W/"f6f2c693ba59df22dff1c578bd3789fd"
      Expires:
      - Thu, 09 Mar 2023 05:38:30 GMT
      Cf-Cache-Status:
      - HIT
      X-Frame-Options:
      - SAMEORIGIN
      X-Ratelimit-Limit:
      - '25000'
      X-Ratelimit-Remaining:
      - '24901'
      X-Ratelimit-Reset:
      - '1680736644'
      X-Request-Id:
      - 9b2edb7b-b803-4c3f-9290-3def6175a371
      X-Runtime:
      - '0.159247'
      X-Server:
      - caterpillar
      Set-Cookie:
      - __cf_bm=ne9jUaoIvRGdVjB.zNKupece13BOk0kwEN8Nw16DsmA-1678253910-0-AW4GJiFJTjBKWDS2o6ZEv0f6GmF4vM0YOL2EzPDr7Ny17Mp1t4/ZEtlKue61MFjnqLo9iJJ5LSj7XnWTAJqzLFs=;
        path=/; expires=Wed, 08-Mar-23 06:08:30 GMT; domain=.pexels.com; HttpOnly;
        Secure; SameSite=None
      Vary:
      - Accept-Encoding
      Server:
      - cloudflare
      Alt-Svc:
      - h3=":443"; ma=86400, h3-29=":443"; ma=86400
    body:
      encoding: UTF-8
      string: '{"page":1,"per_page":10,"photos":[{"id":335887,"width":4800,"height":2400,"url":"https://www.pexels.com/photo/aerial-view-of-a-city-335887/","photographer":"Saulo
        Zayas","photographer_url":"https://www.pexels.com/@saulo-zayas-22727","photographer_id":22727,"avg_color":"#7A9098","src":{"original":"https://images.pexels.com/photos/335887/pexels-photo-335887.jpeg","large2x":"https://images.pexels.com/photos/335887/pexels-photo-335887.jpeg?auto=compress\u0026cs=tinysrgb\u0026dpr=2\u0026h=650\u0026w=940","large":"https://images.pexels.com/photos/335887/pexels-photo-335887.jpeg?auto=compress\u0026cs=tinysrgb\u0026h=650\u0026w=940","medium":"https://images.pexels.com/photos/335887/pexels-photo-335887.jpeg?auto=compress\u0026cs=tinysrgb\u0026h=350","small":"https://images.pexels.com/photos/335887/pexels-photo-335887.jpeg?auto=compress\u0026cs=tinysrgb\u0026h=130","portrait":"https://images.pexels.com/photos/335887/pexels-photo-335887.jpeg?auto=compress\u0026cs=tinysrgb\u0026fit=crop\u0026h=1200\u0026w=800","landscape":"https://images.pexels.com/photos/335887/pexels-photo-335887.jpeg?auto=compress\u0026cs=tinysrgb\u0026fit=crop\u0026h=627\u0026w=1200","tiny":"https://images.pexels.com/photos/335887/pexels-photo-335887.jpeg?auto=compress\u0026cs=tinysrgb\u0026dpr=1\u0026fit=crop\u0026h=200\u0026w=280"},"liked":false,"alt":"Aerial
        View of a City"},{"id":2661176,"width":5472,"height":3648,"url":"https://www.pexels.com/photo/lake-atitlan-2661176/","photographer":"Roberto
        Nickson","photographer_url":"https://www.pexels.com/@rpnickson","photographer_id":1268114,"avg_color":"#86809E","src":{"original":"https://images.pexels.com/photos/2661176/pexels-photo-2661176.jpeg","large2x":"https://images.pexels.com/photos/2661176/pexels-photo-2661176.jpeg?auto=compress\u0026cs=tinysrgb\u0026dpr=2\u0026h=650\u0026w=940","large":"https://images.pexels.com/photos/2661176/pexels-photo-2661176.jpeg?auto=compress\u0026cs=tinysrgb\u0026h=650\u0026w=940","medium":"https://images.pexels.com/photos/2661176/pexels-photo-2661176.jpeg?auto=compress\u0026cs=tinysrgb\u0026h=350","small":"https://images.pexels.com/photos/2661176/pexels-photo-2661176.jpeg?auto=compress\u0026cs=tinysrgb\u0026h=130","portrait":"https://images.pexels.com/photos/2661176/pexels-photo-2661176.jpeg?auto=compress\u0026cs=tinysrgb\u0026fit=crop\u0026h=1200\u0026w=800","landscape":"https://images.pexels.com/photos/2661176/pexels-photo-2661176.jpeg?auto=compress\u0026cs=tinysrgb\u0026fit=crop\u0026h=627\u0026w=1200","tiny":"https://images.pexels.com/photos/2661176/pexels-photo-2661176.jpeg?auto=compress\u0026cs=tinysrgb\u0026dpr=1\u0026fit=crop\u0026h=200\u0026w=280"},"liked":false,"alt":"Lake
        Atitlán"},{"id":2635835,"width":3265,"height":2523,"url":"https://www.pexels.com/photo/black-mountain-covered-in-clouds-photo-2635835/","photographer":"Andy
        Atkins","photographer_url":"https://www.pexels.com/@andy-atkins-1300487","photographer_id":1300487,"avg_color":"#6672A3","src":{"original":"https://images.pexels.com/photos/2635835/pexels-photo-2635835.jpeg","large2x":"https://images.pexels.com/photos/2635835/pexels-photo-2635835.jpeg?auto=compress\u0026cs=tinysrgb\u0026dpr=2\u0026h=650\u0026w=940","large":"https://images.pexels.com/photos/2635835/pexels-photo-2635835.jpeg?auto=compress\u0026cs=tinysrgb\u0026h=650\u0026w=940","medium":"https://images.pexels.com/photos/2635835/pexels-photo-2635835.jpeg?auto=compress\u0026cs=tinysrgb\u0026h=350","small":"https://images.pexels.com/photos/2635835/pexels-photo-2635835.jpeg?auto=compress\u0026cs=tinysrgb\u0026h=130","portrait":"https://images.pexels.com/photos/2635835/pexels-photo-2635835.jpeg?auto=compress\u0026cs=tinysrgb\u0026fit=crop\u0026h=1200\u0026w=800","landscape":"https://images.pexels.com/photos/2635835/pexels-photo-2635835.jpeg?auto=compress\u0026cs=tinysrgb\u0026fit=crop\u0026h=627\u0026w=1200","tiny":"https://images.pexels.com/photos/2635835/pexels-photo-2635835.jpeg?auto=compress\u0026cs=tinysrgb\u0026dpr=1\u0026fit=crop\u0026h=200\u0026w=280"},"liked":false,"alt":"Black
        Mountain Covered in Clouds Photo"},{"id":1202952,"width":3000,"height":4000,"url":"https://www.pexels.com/photo/brown-wooden-carriage-1202952/","photographer":"Miguel
        Lozano","photographer_url":"https://www.pexels.com/@miguel-lozano-209669","photographer_id":209669,"avg_color":"#7C7065","src":{"original":"https://images.pexels.com/photos/1202952/pexels-photo-1202952.jpeg","large2x":"https://images.pexels.com/photos/1202952/pexels-photo-1202952.jpeg?auto=compress\u0026cs=tinysrgb\u0026dpr=2\u0026h=650\u0026w=940","large":"https://images.pexels.com/photos/1202952/pexels-photo-1202952.jpeg?auto=compress\u0026cs=tinysrgb\u0026h=650\u0026w=940","medium":"https://images.pexels.com/photos/1202952/pexels-photo-1202952.jpeg?auto=compress\u0026cs=tinysrgb\u0026h=350","small":"https://images.pexels.com/photos/1202952/pexels-photo-1202952.jpeg?auto=compress\u0026cs=tinysrgb\u0026h=130","portrait":"https://images.pexels.com/photos/1202952/pexels-photo-1202952.jpeg?auto=compress\u0026cs=tinysrgb\u0026fit=crop\u0026h=1200\u0026w=800","landscape":"https://images.pexels.com/photos/1202952/pexels-photo-1202952.jpeg?auto=compress\u0026cs=tinysrgb\u0026fit=crop\u0026h=627\u0026w=1200","tiny":"https://images.pexels.com/photos/1202952/pexels-photo-1202952.jpeg?auto=compress\u0026cs=tinysrgb\u0026dpr=1\u0026fit=crop\u0026h=200\u0026w=280"},"liked":false,"alt":"Brown
        Wooden Carriage "},{"id":4220967,"width":3858,"height":5787,"url":"https://www.pexels.com/photo/volcano-erupting-at-night-under-starry-sky-4220967/","photographer":"Clive
        Kim","photographer_url":"https://www.pexels.com/@clive-kim-2523249","photographer_id":2523249,"avg_color":"#1E151A","src":{"original":"https://images.pexels.com/photos/4220967/pexels-photo-4220967.jpeg","large2x":"https://images.pexels.com/photos/4220967/pexels-photo-4220967.jpeg?auto=compress\u0026cs=tinysrgb\u0026dpr=2\u0026h=650\u0026w=940","large":"https://images.pexels.com/photos/4220967/pexels-photo-4220967.jpeg?auto=compress\u0026cs=tinysrgb\u0026h=650\u0026w=940","medium":"https://images.pexels.com/photos/4220967/pexels-photo-4220967.jpeg?auto=compress\u0026cs=tinysrgb\u0026h=350","small":"https://images.pexels.com/photos/4220967/pexels-photo-4220967.jpeg?auto=compress\u0026cs=tinysrgb\u0026h=130","portrait":"https://images.pexels.com/photos/4220967/pexels-photo-4220967.jpeg?auto=compress\u0026cs=tinysrgb\u0026fit=crop\u0026h=1200\u0026w=800","landscape":"https://images.pexels.com/photos/4220967/pexels-photo-4220967.jpeg?auto=compress\u0026cs=tinysrgb\u0026fit=crop\u0026h=627\u0026w=1200","tiny":"https://images.pexels.com/photos/4220967/pexels-photo-4220967.jpeg?auto=compress\u0026cs=tinysrgb\u0026dpr=1\u0026fit=crop\u0026h=200\u0026w=280"},"liked":false,"alt":"Volcano
        Erupting at Night Under Starry Sky"},{"id":6307488,"width":6000,"height":4000,"url":"https://www.pexels.com/photo/volcano-eruption-6307488/","photographer":"Clive
        Kim","photographer_url":"https://www.pexels.com/@clive-kim-2523249","photographer_id":2523249,"avg_color":"#27171D","src":{"original":"https://images.pexels.com/photos/6307488/pexels-photo-6307488.jpeg","large2x":"https://images.pexels.com/photos/6307488/pexels-photo-6307488.jpeg?auto=compress\u0026cs=tinysrgb\u0026dpr=2\u0026h=650\u0026w=940","large":"https://images.pexels.com/photos/6307488/pexels-photo-6307488.jpeg?auto=compress\u0026cs=tinysrgb\u0026h=650\u0026w=940","medium":"https://images.pexels.com/photos/6307488/pexels-photo-6307488.jpeg?auto=compress\u0026cs=tinysrgb\u0026h=350","small":"https://images.pexels.com/photos/6307488/pexels-photo-6307488.jpeg?auto=compress\u0026cs=tinysrgb\u0026h=130","portrait":"https://images.pexels.com/photos/6307488/pexels-photo-6307488.jpeg?auto=compress\u0026cs=tinysrgb\u0026fit=crop\u0026h=1200\u0026w=800","landscape":"https://images.pexels.com/photos/6307488/pexels-photo-6307488.jpeg?auto=compress\u0026cs=tinysrgb\u0026fit=crop\u0026h=627\u0026w=1200","tiny":"https://images.pexels.com/photos/6307488/pexels-photo-6307488.jpeg?auto=compress\u0026cs=tinysrgb\u0026dpr=1\u0026fit=crop\u0026h=200\u0026w=280"},"liked":false,"alt":"Volcano
        Eruption"},{"id":13441679,"width":4000,"height":6000,"url":"https://www.pexels.com/photo/volcan-de-fuego-in-guatemala-13441679/","photographer":"Jorge
        Acre","photographer_url":"https://www.pexels.com/@jorge-acre-239933086","photographer_id":239933086,"avg_color":"#79797B","src":{"original":"https://images.pexels.com/photos/13441679/pexels-photo-13441679.jpeg","large2x":"https://images.pexels.com/photos/13441679/pexels-photo-13441679.jpeg?auto=compress\u0026cs=tinysrgb\u0026dpr=2\u0026h=650\u0026w=940","large":"https://images.pexels.com/photos/13441679/pexels-photo-13441679.jpeg?auto=compress\u0026cs=tinysrgb\u0026h=650\u0026w=940","medium":"https://images.pexels.com/photos/13441679/pexels-photo-13441679.jpeg?auto=compress\u0026cs=tinysrgb\u0026h=350","small":"https://images.pexels.com/photos/13441679/pexels-photo-13441679.jpeg?auto=compress\u0026cs=tinysrgb\u0026h=130","portrait":"https://images.pexels.com/photos/13441679/pexels-photo-13441679.jpeg?auto=compress\u0026cs=tinysrgb\u0026fit=crop\u0026h=1200\u0026w=800","landscape":"https://images.pexels.com/photos/13441679/pexels-photo-13441679.jpeg?auto=compress\u0026cs=tinysrgb\u0026fit=crop\u0026h=627\u0026w=1200","tiny":"https://images.pexels.com/photos/13441679/pexels-photo-13441679.jpeg?auto=compress\u0026cs=tinysrgb\u0026dpr=1\u0026fit=crop\u0026h=200\u0026w=280"},"liked":false,"alt":"Volcan
        de Fuego in Guatemala"},{"id":6043246,"width":5472,"height":3648,"url":"https://www.pexels.com/photo/people-watching-the-sea-of-clouds-6043246/","photographer":"mike
        sember","photographer_url":"https://www.pexels.com/@mike-sember-1263707","photographer_id":1263707,"avg_color":"#306890","src":{"original":"https://images.pexels.com/photos/6043246/pexels-photo-6043246.jpeg","large2x":"https://images.pexels.com/photos/6043246/pexels-photo-6043246.jpeg?auto=compress\u0026cs=tinysrgb\u0026dpr=2\u0026h=650\u0026w=940","large":"https://images.pexels.com/photos/6043246/pexels-photo-6043246.jpeg?auto=compress\u0026cs=tinysrgb\u0026h=650\u0026w=940","medium":"https://images.pexels.com/photos/6043246/pexels-photo-6043246.jpeg?auto=compress\u0026cs=tinysrgb\u0026h=350","small":"https://images.pexels.com/photos/6043246/pexels-photo-6043246.jpeg?auto=compress\u0026cs=tinysrgb\u0026h=130","portrait":"https://images.pexels.com/photos/6043246/pexels-photo-6043246.jpeg?auto=compress\u0026cs=tinysrgb\u0026fit=crop\u0026h=1200\u0026w=800","landscape":"https://images.pexels.com/photos/6043246/pexels-photo-6043246.jpeg?auto=compress\u0026cs=tinysrgb\u0026fit=crop\u0026h=627\u0026w=1200","tiny":"https://images.pexels.com/photos/6043246/pexels-photo-6043246.jpeg?auto=compress\u0026cs=tinysrgb\u0026dpr=1\u0026fit=crop\u0026h=200\u0026w=280"},"liked":false,"alt":"People
        Watching the Sea of Clouds"},{"id":6307208,"width":3783,"height":5674,"url":"https://www.pexels.com/photo/colorful-graves-in-cemetery-6307208/","photographer":"Clive
        Kim","photographer_url":"https://www.pexels.com/@clive-kim-2523249","photographer_id":2523249,"avg_color":"#A1A49D","src":{"original":"https://images.pexels.com/photos/6307208/pexels-photo-6307208.jpeg","large2x":"https://images.pexels.com/photos/6307208/pexels-photo-6307208.jpeg?auto=compress\u0026cs=tinysrgb\u0026dpr=2\u0026h=650\u0026w=940","large":"https://images.pexels.com/photos/6307208/pexels-photo-6307208.jpeg?auto=compress\u0026cs=tinysrgb\u0026h=650\u0026w=940","medium":"https://images.pexels.com/photos/6307208/pexels-photo-6307208.jpeg?auto=compress\u0026cs=tinysrgb\u0026h=350","small":"https://images.pexels.com/photos/6307208/pexels-photo-6307208.jpeg?auto=compress\u0026cs=tinysrgb\u0026h=130","portrait":"https://images.pexels.com/photos/6307208/pexels-photo-6307208.jpeg?auto=compress\u0026cs=tinysrgb\u0026fit=crop\u0026h=1200\u0026w=800","landscape":"https://images.pexels.com/photos/6307208/pexels-photo-6307208.jpeg?auto=compress\u0026cs=tinysrgb\u0026fit=crop\u0026h=627\u0026w=1200","tiny":"https://images.pexels.com/photos/6307208/pexels-photo-6307208.jpeg?auto=compress\u0026cs=tinysrgb\u0026dpr=1\u0026fit=crop\u0026h=200\u0026w=280"},"liked":false,"alt":"Colorful
        Graves in Cemetery"},{"id":14843659,"width":6034,"height":4012,"url":"https://www.pexels.com/photo/green-trees-under-the-blue-sky-14843659/","photographer":"Luis
        A. Dumois N.","photographer_url":"https://www.pexels.com/@luis-a-dumois-n-3269789","photographer_id":3269789,"avg_color":"#959E8B","src":{"original":"https://images.pexels.com/photos/14843659/pexels-photo-14843659.jpeg","large2x":"https://images.pexels.com/photos/14843659/pexels-photo-14843659.jpeg?auto=compress\u0026cs=tinysrgb\u0026dpr=2\u0026h=650\u0026w=940","large":"https://images.pexels.com/photos/14843659/pexels-photo-14843659.jpeg?auto=compress\u0026cs=tinysrgb\u0026h=650\u0026w=940","medium":"https://images.pexels.com/photos/14843659/pexels-photo-14843659.jpeg?auto=compress\u0026cs=tinysrgb\u0026h=350","small":"https://images.pexels.com/photos/14843659/pexels-photo-14843659.jpeg?auto=compress\u0026cs=tinysrgb\u0026h=130","portrait":"https://images.pexels.com/photos/14843659/pexels-photo-14843659.jpeg?auto=compress\u0026cs=tinysrgb\u0026fit=crop\u0026h=1200\u0026w=800","landscape":"https://images.pexels.com/photos/14843659/pexels-photo-14843659.jpeg?auto=compress\u0026cs=tinysrgb\u0026fit=crop\u0026h=627\u0026w=1200","tiny":"https://images.pexels.com/photos/14843659/pexels-photo-14843659.jpeg?auto=compress\u0026cs=tinysrgb\u0026dpr=1\u0026fit=crop\u0026h=200\u0026w=280"},"liked":false,"alt":"Green
        Trees Under the Blue Sky"}],"total_results":56,"next_page":"https://api.pexels.com/v1/search/?page=2\u0026per_page=10\u0026query=guatemala"}'
  recorded_at: Wed, 08 Mar 2023 05:38:30 GMT
recorded_with: VCR 6.1.0
